<svg xmlns="http://www.w3.org/2000/svg" xmlns:xlink="http://www.w3.org/1999/xlink" viewBox="0 0 40 40" version="1.1">
<g id="surface1">
<path style=" fill:#DFF0FE;" d="M 11.5 26.5 L 11.5 19.5 L 17.359375 19.5 L 15.933594 25.207031 C 15.742188 25.96875 15.0625 26.5 14.277344 26.5 Z "></path>
<path style=" fill:#4788C7;" d="M 16.71875 20 L 15.449219 25.085938 C 15.3125 25.625 14.832031 26 14.277344 26 L 12 26 L 12 20 L 16.71875 20 M 18 19 L 11 19 L 11 27 L 14.277344 27 C 15.289063 27 16.171875 26.308594 16.417969 25.328125 Z "></path>
<path style=" fill:#98CCFD;" d="M 9.140625 37.503906 C 8.828125 37.503906 8.515625 37.433594 8.203125 37.292969 L 4.699219 35.609375 C 3.011719 34.855469 2.148438 33.039063 2.632813 31.285156 C 3.621094 27.683594 4.992188 20.988281 3.058594 16.601563 C 3.023438 16.554688 3.253906 16.304688 4.53125 16.304688 C 8.792969 16.304688 16.820313 18.734375 17.113281 19.835938 C 17.101563 19.835938 17.046875 19.894531 16.886719 19.972656 C 11.5625 22.660156 11.5 32.070313 11.5 32.46875 L 11.5 34.785156 C 11.5 36.28125 10.441406 37.503906 9.140625 37.503906 Z "></path>
<path style=" fill:#4788C7;" d="M 4.527344 16.804688 C 8.273438 16.804688 14.574219 18.644531 16.28125 19.734375 C 11.0625 22.796875 11 32.066406 11 32.46875 L 11 34.785156 C 11 36.007813 10.164063 37.003906 9.140625 37.003906 C 8.902344 37.003906 8.652344 36.945313 8.433594 36.847656 L 4.890625 35.148438 C 3.46875 34.511719 2.703125 32.90625 3.113281 31.417969 C 4.085938 27.875 5.421875 21.375 3.699219 16.855469 C 3.886719 16.828125 4.152344 16.804688 4.527344 16.804688 M 4.527344 15.804688 C 3.117188 15.804688 2.285156 16.09375 2.597656 16.804688 C 4.378906 20.835938 3.242188 27.164063 2.148438 31.152344 C 1.601563 33.136719 2.605469 35.21875 4.484375 36.058594 L 8 37.75 C 8.386719 37.921875 8.773438 38.003906 9.140625 38.003906 C 10.707031 38.003906 12 36.574219 12 34.785156 L 12 32.46875 C 12 32.46875 12 23 17.113281 20.421875 C 20.074219 18.925781 9.171875 15.804688 4.527344 15.804688 Z "></path>
<path style=" fill:#DFF0FE;" d="M 10.5 20.5 C 5.535156 20.5 1.5 16.464844 1.5 11.5 C 1.5 6.535156 5.535156 2.5 10.5 2.5 C 15.34375 2.5 29.039063 5.789063 31.5 6.390625 L 31.5 16.609375 C 29.046875 17.210938 15.398438 20.5 10.5 20.5 Z "></path>
<path style=" fill:#4788C7;" d="M 10.5 3 C 15.078125 3 27.761719 6 31 6.785156 L 31 16.214844 C 27.773438 17 15.136719 20 10.5 20 C 5.8125 20 2 16.1875 2 11.5 C 2 6.8125 5.8125 3 10.5 3 M 10.5 2 C 5.253906 2 1 6.253906 1 11.5 C 1 16.746094 5.253906 21 10.5 21 C 15.988281 21 32 17 32 17 L 32 6 C 32 6 15.925781 2 10.5 2 Z "></path>
<path style="fill:none;stroke-width:1;stroke-linecap:round;stroke-linejoin:miter;stroke:#4788C7;stroke-opacity:1;stroke-miterlimit:10;" d="M 33.5 11.5 L 38.5 11.5 "></path>
<path style="fill:none;stroke-width:1;stroke-linecap:round;stroke-linejoin:miter;stroke:#4788C7;stroke-opacity:1;stroke-miterlimit:10;" d="M 33.5 8.5 L 38.5 8.5 "></path>
<path style="fill:none;stroke-width:1;stroke-linecap:round;stroke-linejoin:miter;stroke:#4788C7;stroke-opacity:1;stroke-miterlimit:10;" d="M 33.5 14.5 L 38.5 14.5 "></path>
<path style=" fill:#98CCFD;" d="M 15 11.5 C 15 13.984375 12.984375 16 10.5 16 C 8.015625 16 6 13.984375 6 11.5 C 6 9.015625 8.015625 7 10.5 7 C 12.984375 7 15 9.015625 15 11.5 Z "></path>
<path style=" fill:#FFFFFF;" d="M 10 25.5 C 10 26.328125 9.328125 27 8.5 27 C 7.671875 27 7 26.328125 7 25.5 C 7 24.671875 7.671875 24 8.5 24 C 9.328125 24 10 24.671875 10 25.5 Z "></path>
</g>
</svg>